<?xml version="1.0" encoding="UTF-8" standalone="no"?>
<!-- Created with Inkscape (http://www.inkscape.org/) -->

<svg
   width="1024"
   height="1024"
   viewBox="0 0 270.93333 270.93334"
   version="1.1"
   id="svg5"
   sodipodi:docname="Night.svg"
   inkscape:version="1.1.2 (0a00cf5339, 2022-02-04, custom)"
   inkscape:export-filename="/home/felixq/Projekte/nitain_bot/static/img/png/Night.png"
   inkscape:export-xdpi="96"
   inkscape:export-ydpi="96"
   xmlns:inkscape="http://www.inkscape.org/namespaces/inkscape"
   xmlns:sodipodi="http://sodipodi.sourceforge.net/DTD/sodipodi-0.dtd"
   xmlns:xlink="http://www.w3.org/1999/xlink"
   xmlns="http://www.w3.org/2000/svg"
   xmlns:svg="http://www.w3.org/2000/svg">
  <sodipodi:namedview
     id="namedview7"
     pagecolor="#505050"
     bordercolor="#eeeeee"
     borderopacity="1"
     inkscape:pageshadow="0"
     inkscape:pageopacity="0"
     inkscape:pagecheckerboard="0"
     inkscape:document-units="mm"
     showgrid="false"
     units="px"
     inkscape:snap-smooth-nodes="false"
     inkscape:snap-object-midpoints="true"
     inkscape:snap-page="true"
     inkscape:zoom="0.52661996"
     inkscape:cx="571.56968"
     inkscape:cy="550.68175"
     inkscape:window-width="1920"
     inkscape:window-height="1048"
     inkscape:window-x="0"
     inkscape:window-y="-5"
     inkscape:window-maximized="1"
     inkscape:current-layer="layer4" />
  <defs
     id="defs2">
    <filter
       id="selectable_hidder_filter"
       width="1.0141143"
       height="1.0141143"
       x="-0.0070571747"
       y="-0.0070571747"
       style="color-interpolation-filters:sRGB;"
       inkscape:label="LPE boolean visibility">
      <feComposite
         id="boolops_hidder_primitive"
         result="composite1"
         operator="arithmetic"
         in2="SourceGraphic"
         in="BackgroundImage" />
    </filter>
    <inkscape:path-effect
       effect="bool_op"
       id="path-effect5951"
       is_visible="true"
       lpeversion="1"
       operand-path="#circle5532"
       operation="diff"
       swap-operands="true"
       rmv-inner="false"
       filltype-this="from-curve"
       filter=""
       filltype-operand="from-curve" />
    <inkscape:path-effect
       effect="roughen"
       id="path-effect3762"
       is_visible="true"
       lpeversion="1.1"
       method="size"
       max_segment_size="11.4488"
       segments="6"
       displace_x="10;1"
       displace_y="10;1"
       global_randomize="1;1"
       handles="along"
       shift_nodes="true"
       fixed_displacement="false"
       spray_tool_friendly="false" />
    <inkscape:path-effect
       effect="vonkoch"
       id="path-effect3760"
       is_visible="true"
       lpeversion="1"
       ref_path="M -73.535622,22.13136 H 498.90325"
       generator="M -73.535622,352.62147 H 117.27733 m 190.81296,0 h 190.81296"
       similar_only="false"
       nbgenerations="3"
       drawall="true"
       maxComplexity="1000" />
    <linearGradient
       inkscape:collect="always"
       id="linearGradient3198">
      <stop
         style="stop-color:#ffffff;stop-opacity:1"
         offset="0"
         id="stop3194" />
      <stop
         style="stop-color:#4cc4ff;stop-opacity:1"
         offset="0.59065694"
         id="stop4834" />
      <stop
         style="stop-color:#6772e5;stop-opacity:1"
         offset="0.83349729"
         id="stop4964" />
      <stop
         style="stop-color:#0e007d;stop-opacity:1"
         offset="1"
         id="stop3196" />
    </linearGradient>
    <inkscape:path-effect
       effect="mirror_symmetry"
       start_point="149.41706,146.53342"
       end_point="114.91415,146.82676"
       center_point="132.1656,146.68009"
       id="path-effect2316"
       is_visible="true"
       lpeversion="1.1"
       mode="free"
       discard_orig_path="false"
       fuse_paths="false"
       oposite_fuse="false"
       split_items="false"
       split_open="false" />
    <inkscape:path-effect
       effect="mirror_symmetry"
       start_point="140.69753,132.30709"
       end_point="119.96158,160.25013"
       center_point="130.32956,146.27861"
       id="path-effect2215"
       is_visible="true"
       lpeversion="1.1"
       mode="free"
       discard_orig_path="false"
       fuse_paths="true"
       oposite_fuse="false"
       split_items="false"
       split_open="false" />
    <inkscape:path-effect
       effect="mirror_symmetry"
       start_point="50.41469,86.90397"
       end_point="119.79125,138.7003"
       center_point="85.10297,112.80213"
       id="path-effect2036"
       is_visible="true"
       lpeversion="1.1"
       mode="free"
       discard_orig_path="false"
       fuse_paths="true"
       oposite_fuse="true"
       split_items="false"
       split_open="false" />
    <inkscape:path-effect
       effect="mirror_symmetry"
       start_point="199.19981,4.1836194"
       end_point="136.26025,139.9394"
       center_point="167.73003,72.061509"
       id="path-effect1880"
       is_visible="true"
       lpeversion="1.1"
       mode="free"
       discard_orig_path="false"
       fuse_paths="false"
       oposite_fuse="false"
       split_items="false"
       split_open="false" />
    <inkscape:path-effect
       effect="mirror_symmetry"
       start_point="131.14665,1.0939236"
       end_point="131.91369,132.68188"
       center_point="131.53017,66.887901"
       id="path-effect1741"
       is_visible="true"
       lpeversion="1.1"
       mode="vertical"
       discard_orig_path="false"
       fuse_paths="true"
       oposite_fuse="true"
       split_items="false"
       split_open="false" />
    <inkscape:path-effect
       effect="mirror_symmetry"
       start_point="63.595171,14.162378"
       end_point="125.94192,131.84834"
       center_point="94.768548,73.005357"
       id="path-effect1663"
       is_visible="true"
       lpeversion="1.1"
       mode="free"
       discard_orig_path="false"
       fuse_paths="false"
       oposite_fuse="false"
       split_items="false"
       split_open="false" />
    <inkscape:path-effect
       effect="mirror_symmetry"
       start_point="122.68766,149.88818"
       end_point="129.55774,228.39145"
       center_point="126.1227,189.13982"
       id="path-effect1661"
       is_visible="true"
       lpeversion="1.1"
       mode="free"
       discard_orig_path="false"
       fuse_paths="false"
       oposite_fuse="false"
       split_items="false"
       split_open="false" />
    <inkscape:path-effect
       effect="mirror_symmetry"
       start_point="261.8706,83.505633"
       end_point="151.44193,139.59224"
       center_point="206.65627,111.54894"
       id="path-effect1621"
       is_visible="true"
       lpeversion="1.1"
       mode="free"
       discard_orig_path="false"
       fuse_paths="false"
       oposite_fuse="false"
       split_items="false"
       split_open="false" />
    <inkscape:path-effect
       effect="mirror_symmetry"
       start_point="139.71547,132.17054"
       end_point="177.5372,8.4647479"
       center_point="158.62634,70.317642"
       id="path-effect1562"
       is_visible="true"
       lpeversion="1.1"
       mode="free"
       discard_orig_path="false"
       fuse_paths="true"
       oposite_fuse="false"
       split_items="false"
       split_open="false" />
    <inkscape:path-effect
       effect="mirror_symmetry"
       start_point="131.14665,8.5086136"
       end_point="131.91369,132.68188"
       center_point="131.53017,70.595247"
       id="path-effect1741-3"
       is_visible="true"
       lpeversion="1.1"
       mode="free"
       discard_orig_path="false"
       fuse_paths="true"
       oposite_fuse="true"
       split_items="false"
       split_open="false" />
    <radialGradient
       inkscape:collect="always"
       xlink:href="#linearGradient3198"
       id="radialGradient3200"
       cx="135.46666"
       cy="135.46666"
       fx="135.46666"
       fy="135.46666"
       r="136.08634"
       gradientUnits="userSpaceOnUse"
       gradientTransform="matrix(0.92496499,0,0,0.92496499,10.164737,10.164737)" />
  </defs>
  <g
     inkscape:groupmode="layer"
     id="layer4"
     inkscape:label="Layer 1">
    <circle
       style="fill:url(#radialGradient3200);fill-opacity:1;stroke:#000000;stroke-width:3.53711;stroke-linecap:round;stroke-miterlimit:4;stroke-dasharray:none;stroke-opacity:1"
       id="path3067"
       cx="135.46666"
       cy="135.46666"
       r="125.30192"
       inkscape:export-filename="/home/felixq/Projekte/nitain_bot/static/img/png/Warm.png"
       inkscape:export-xdpi="96"
       inkscape:export-ydpi="96"
       sodipodi:insensitive="true" />
    <circle
       style="fill:#00d8ff;fill-opacity:1;stroke:#000000;stroke-width:3.53711;stroke-linecap:round;stroke-miterlimit:4;stroke-dasharray:none;stroke-opacity:1;filter:url(#selectable_hidder_filter)"
       id="circle5532"
       inkscape:export-filename="/home/felixq/Projekte/nitain_bot/static/img/png/Warm.png"
       inkscape:export-xdpi="96"
       inkscape:export-ydpi="96"
       cx="135.46666"
       cy="135.46666"
       r="125.30192"
       transform="matrix(0.85110547,0,0,0.85110547,18.124818,24.772472)"
       sodipodi:insensitive="true" />
    <path
       style="fill:none;fill-opacity:1;stroke:#000000;stroke-width:3.53711;stroke-linecap:round;stroke-miterlimit:4;stroke-dasharray:none;stroke-opacity:1"
       id="circle5869"
       inkscape:export-filename="/home/felixq/Projekte/nitain_bot/static/img/png/Warm.png"
       inkscape:export-xdpi="96"
       inkscape:export-ydpi="96"
       inkscape:path-effect="#path-effect5951"
       sodipodi:type="arc"
       sodipodi:cx="85.864967"
       sodipodi:cy="135.46666"
       sodipodi:rx="125.30192"
       sodipodi:ry="125.30192"
       d="m 158.99617,10.164822 c -12.72256,0 -24.99585,1.911332 -36.56551,5.436404 51.36165,15.649006 88.7357,63.385007 88.7357,119.864794 0,56.47978 -37.37405,104.21808 -88.7357,119.86708 11.56966,3.52507 23.84295,5.4364 36.56551,5.4364 69.20232,0 125.30119,-56.10114 125.30119,-125.30348 0,-69.202342 -56.09887,-125.301198 -125.30119,-125.301198 z"
       transform="matrix(0.85110547,0,0,0.85110547,-1.9006267,24.772492)" />
  </g>
</svg>
